grpassgmt10
…
country_stats

# A tibble: 217 × 4
   name                 code  gdp_per_cap life_exp
   <chr>                <chr>       <dbl>    <dbl>
 1 Aruba                ABW        44559.     76.5
 2 Afghanistan          AFG           NA      66.3
 3 Angola               AGO         8902.     64.8
 4 Albania              ALB        21641.     79.8
 5 Andorra              AND        65928.     84.2
 6 United Arab Emirates ARE        69702.     83.1
 7 Argentina            ARG        26772.     77.5
 8 Armenia              ARM        20079.     78.3
 9 American Samoa       ASM           NA      73.0
10 Antigua and Barbuda  ATG        29372.     77.8
# ℹ 207 more rows
…
3.4. Import the Boundaries as sf Objects

country_boundaries <-
    "WB_GAD_ADM0_complete.geojson" |>
    read_sf() |>
    select(code = ISO_A3, status = WB_STATUS)

country_boundaries

Simple feature collection with 284 features and 2 fields
Geometry type: MULTIPOLYGON
Dimension:     XY
Bounding box:  xmin: -180 ymin: -59.42087 xmax: 180 ymax: 83.66508
Geodetic CRS:  WGS 84
# A tibble: 284 × 3
   code  status                                                         geometry
   <chr> <chr>                                                <MULTIPOLYGON [°]>
 1 CHN   Member State     (((117.5868 38.59517, 117.5891 38.58929, 117.5894 38.…
 2 JPN   Member State     (((137.4841 34.67386, 137.4668 34.67145, 137.4606 34.…
 3 KOR   Member State     (((126.0536 36.19852, 126.0537 36.20469, 126.0583 36.…
 4 PRK   Non Member State (((126.9551 38.16282, 126.9518 38.16213, 126.951 38.1…
 5 RUS   Member State     (((130.619 48.88019, 130.6066 48.87763, 130.5912 48.8…
 6 IND   Member State     (((97.0617 27.74969, 97.0555 27.74776, 97.05049 27.74…
 7 KAZ   Member State     (((82.33713 45.20815, 82.33475 45.20851, 82.33324 45.…
 8 KGZ   Member State     (((80.17441 42.21084, 80.16555 42.19608, 80.16556 42.…
 9 MMR   Member State     (((97.54793 24.74106, 97.54926 24.73968, 97.54835 24.…
10 MNG   Member State     (((90.07994 47.86986, 90.07386 47.87005, 90.06721 47.…
# ℹ 274 more rows
…
