Choropleth Lab
…
country_stats

# A tibble: 217 × 4
   name                 code  gdp_per_cap life_exp
   <chr>                <chr>       <dbl>    <dbl>
 1 Aruba                ABW        44559.     76.5
 2 Afghanistan          AFG           NA      66.3
 3 Angola               AGO         8902.     64.8
 4 Albania              ALB        21641.     79.8
 5 Andorra              AND        65928.     84.2
 6 United Arab Emirates ARE        69702.     83.1
 7 Argentina            ARG        26772.     77.5
 8 Armenia              ARM        20079.     78.3
 9 American Samoa       ASM           NA      73.0
10 Antigua and Barbuda  ATG        29372.     77.8
# ℹ 207 more rows
…
3.4. Import the Boundaries as sf Objects

country_boundaries <-
  "WB_GAD_ADM0_complete.geojson" |>
  read_sf() |>
  select(code = ISO_A3, status = WB_STATUS)

country_boundaries

Simple feature collection with 284 features and 2 fields
Geometry type: MULTIPOLYGON
Dimension:     XY
Bounding box:  xmin: -180 ymin: -59.42087 xmax: 180 ymax: 83.66508
Geodetic CRS:  WGS 84
# A tibble: 284 × 3
   code  status                                                         geometry
   <chr> <chr>                                                <MULTIPOLYGON [°]>
 1 CHN   Member State     (((117.5868 38.59517, 117.5891 38.58929, 117.5894 38.…
 2 JPN   Member State     (((137.4841 34.67386, 137.4668 34.67145, 137.4606 34.…
 3 KOR   Member State     (((126.0536 36.19852, 126.0537 36.20469, 126.0583 36.…
 4 PRK   Non Member State (((126.9551 38.16282, 126.9518 38.16213, 126.951 38.1…
 5 RUS   Member State     (((130.619 48.88019, 130.6066 48.87763, 130.5912 48.8…
 6 IND   Member State     (((97.0617 27.74969, 97.0555 27.74776, 97.05049 27.74…
 7 KAZ   Member State     (((82.33713 45.20815, 82.33475 45.20851, 82.33324 45.…
 8 KGZ   Member State     (((80.17441 42.21084, 80.16555 42.19608, 80.16556 42.…
 9 MMR   Member State     (((97.54793 24.74106, 97.54926 24.73968, 97.54835 24.…
10 MNG   Member State     (((90.07994 47.86986, 90.07386 47.87005, 90.06721 47.…
# ℹ 274 more rows
…
The code BES is shared with Bonaire, Saba, and Sint Eustatius. 1 These are separate Caribbean islands that have been special municipalities of the Netherlands since 2010 following the dissolution of the Netherlands Antilles. 2

3.9. Join the statistics to the boundaries

countries <- country_boundaries |>
  left_join(country_stats, by = "code")

countries

Simple feature collection with 264 features and 5 fields
Geometry type: MULTIPOLYGON
Dimension:     XY
Bounding box:  xmin: -180 ymin: -55.47733 xmax: 180 ymax: 83.65703
Geodetic CRS:  WGS 84
# A tibble: 264 × 6
   code  status                              geometry name  gdp_per_cap life_exp
   <chr> <chr>                     <MULTIPOLYGON [°]> <chr>       <dbl>    <dbl>
 1 ABW   Does Not Contain … (((-70.05317 12.56385, -… Aruba      44559.     76.5
 2 AFG   Contains a Member… (((74.88918 37.23446, 74… Afgh…         NA      66.3
 3 AGO   Contains a Member… (((13.43165 -5.860225, 1… Ango…       8902.     64.8
 4 AIA   Does Not Contain … (((-63.02705 18.25781, -… <NA>          NA      NA  
 5 ALA   Does Not Contain … (((20.0263 60.09101, 20.… <NA>          NA      NA  
 6 ALB   Contains a Member… (((20.98069 40.85395, 20… Alba…      21641.     79.8
 7 AND   Contains a Member… (((1.441969 42.60373, 1.… Ando…      65928.     84.2
 8 ARE   Contains a Member… (((55.20833 22.70833, 55… Unit…      69702.     83.1
 9 ARG   Contains a Member… (((-54.59378 -25.59278, … Arge…      26772.     77.5
10 ARM   Contains a Member… (((43.47435 41.12305, 43… Arme…      20079.     78.3
# ℹ 254 more rows
…
